{
	"info": {
		"_postman_id": "338926f7-8355-4e83-bac0-611481212187",
		"name": "s34",
		"schema": "https://schema.getpostman.com/json/collection/v2.1.0/collection.json",
		"_exporter_id": "22132531"
	},
	"item": [
		{
			"name": "Get Request",
			"request": {
				"method": "GET",
				"header": []
			},
			"response": []
		},
		{
			"name": "post",
			"request": {
				"method": "GET",
				"header": []
			},
			"response": []
		},
		{
			"name": "put",
			"request": {
				"method": "GET",
				"header": []
			},
			"response": []
		},
		{
			"name": "delete",
			"request": {
				"method": "GET",
				"header": []
			},
			"response": []
		}
	]
}